0000.063 (R) [notice] Looking for db archive: file name: backup_2017-10-13-0920_WP_Playground_4ec56e37b371-db.gz
0000.063 (R) [notice] Archive is expected to be size: 149.8 KB: OK
0000.065 (R) [notice] Looking for plugins archive: file name: backup_2017-10-13-0920_WP_Playground_4ec56e37b371-plugins.zip
0000.065 (R) [notice] Archive is expected to be size: 9426.8 KB: OK
0000.065 (R) [notice] Looking for themes archive: file name: backup_2017-10-13-0920_WP_Playground_4ec56e37b371-themes.zip
0000.066 (R) [notice] Archive is expected to be size: 33225.1 KB: OK
0000.066 (R) [notice] Looking for uploads archive: file name: backup_2017-10-13-0920_WP_Playground_4ec56e37b371-uploads.zip
0000.067 (R) [notice] Archive is expected to be size: 5766.8 KB: OK
0000.067 (R) [notice] Looking for others archive: file name: backup_2017-10-13-0920_WP_Playground_4ec56e37b371-others.zip
0000.067 (R) [notice] Archive is expected to be size: 1.6 KB: OK
0000.074 (R) [notice] Unpacking backup... (backup_2017-10-13-0920_WP_Playground_4ec56e37b371-db.gz, 0.1 Mb)
0000.076 (R) [notice] Restoring the database (on a large site this can take a long time - if it times out (which can happen if your web hosting company has configured your hosting to limit resources) then you should use a different method, such as phpMyAdmin)...
0000.098 (R) [notice] Enabling Maintenance mode&#8230;
0000.100 (R) [notice] Backup of: http://localhost:8888/wordpress
0000.132 (R) [notice] Content URL: http://localhost:8888/wordpress/wp-content
0000.132 (R) [notice] Uploads URL: http://localhost:8888/wordpress/wp-content/uploads
0000.132 (R) [notice] Old table prefix: wp_
0000.132 (R) [notice] Site information: multisite = 0
0000.135 (R) [notice] New table prefix: wp_
0000.144 (R) [notice] Processing table (InnoDB):  wp_options
0000.640 (R) [notice] Processing table (InnoDB):  wp_users
0000.657 (R) [notice] Processing table (InnoDB):  wp_usermeta
0000.697 (R) [notice] Processing table (InnoDB):  wp_commentmeta
0000.714 (R) [notice] Processing table (InnoDB):  wp_comments
0000.736 (R) [notice] Processing table (InnoDB):  wp_links
0000.753 (R) [notice] Processing table (InnoDB):  wp_postmeta
0000.783 (R) [notice] Processing table (InnoDB):  wp_posts
0000.851 (R) [notice] Processing table (InnoDB):  wp_term_relationships
0000.889 (R) [notice] Processing table (InnoDB):  wp_term_taxonomy
0000.929 (R) [notice] Processing table (InnoDB):  wp_termmeta
0000.950 (R) [notice] Processing table (InnoDB):  wp_terms
0000.972 (R) [notice] Disabling Maintenance mode&#8230;
0000.973 (R) [notice] Finished: lines processed: 41 in 0.89 seconds
0000.973 (R) [notice] Cleaning up rubbish...
0000.982 (R) [notice] Unpacking backup... (backup_2017-10-13-0920_WP_Playground_4ec56e37b371-plugins.zip, 9.2 Mb)
0003.788 (R) [notice] Moving old data out of the way...
0005.253 (R) [notice] Moving unpacked backup into place...
0006.676 (R) [notice] Cleaning up rubbish...
0006.680 (R) [notice] Unpacking backup... (backup_2017-10-13-0920_WP_Playground_4ec56e37b371-themes.zip, 32.4 Mb)
0022.802 (R) [notice] Moving old data out of the way...
0034.314 (R) [notice] Moving unpacked backup into place...
0043.466 (R) [notice] Cleaning up rubbish...
0043.470 (R) [notice] Unpacking backup... (backup_2017-10-13-0920_WP_Playground_4ec56e37b371-uploads.zip, 5.6 Mb)
0043.576 (R) [notice] Moving old data out of the way...
0043.605 (R) [notice] Moving unpacked backup into place...
0043.641 (R) [notice] Cleaning up rubbish...
0043.645 (R) [notice] Unpacking backup... (backup_2017-10-13-0920_WP_Playground_4ec56e37b371-others.zip, 0 Mb)
0043.650 (R) [notice] Cleaning up rubbish...
0043.659 (R) [notice] Restore successful!
